…
annotated <- handcode(data = sentences,
                      candidate = c("Joe Biden", "Donald Trump"),
                      sentiment = c("positive", "negative"),
                      context = TRUE,
                      pre = previous,
                      post = subsequent)
```

We can stop the annotation process at any point by clicking on the
button `save and exit`. Once we click this button, the app will close
and the function returns a data frame with our texts and annotations.

``` r
annotated
#> # A tibble: 58 × 3
#>    texts                                                     candidate sentiment
#>    <chr>                                                     <fct>     <fct>    
#>  1 I wasn’t in the crowd of people who believed Joe Biden s… "Joe Bid… "negativ…
#>  2 Not after Tuesday night’s horror show: a disgrace to the… "Not app… "negativ…
#>  3 And, I should add, a degradation of the presidency itsel… ""        ""       
#>  4 He put on a performance so contemptuous, so puerile, so … ""        ""       
#>  5 No matter how Wallace pleaded with Trump or admonished h… ""        ""       
#>  6 But then why should Wallace have an experience any diffe… ""        ""       
#>  7 Almost from the start, he talked over Biden, taunting hi… ""        ""       
#>  8 He interrupted him and interrupted him and then interrup… ""        ""       
#>  9 “Mr.                                                      ""        ""       
#> 10 President, I’m the moderator of this debate, and I would… ""        ""       
#> # ℹ 48 more rows
```
…
